Fold
0,1,2,3,4,5,6,7,8
Result
0.3790476190476191,0.38226882745471874,0.32221163012392756,0.30505243088655865,0.3508102955195424,0.3994280266920877,0.34699714013346045,0.29551954242135364,0.32571428571428573
