Fold
0,1,2,3,4,5,6,7,8
Result
0.37279151943462896,0.3274210713018801,0.24725469358838115,0.41332860687699396,0.3882978723404255,0.25070721357850073,0.38224893917963226,0.33934252386002123,0.42756183745583043
