Fold
0,1,2,3,4,5,6,7,8
Result
0.37493036211699166,0.29966517857142855,0.24372559955382042,0.42131696428571436,0.37834821428571436,0.24136008918617613,0.3795986622073579,0.34317548746518106,0.42952646239554315
