Fold
0,1,2,3,4,5,6,7,8
Result
0.37333333333333335,0.30219256434699715,0.2163965681601525,0.4232602478551001,0.40324118207816967,0.24976167778836988,0.3746425166825548,0.340324118207817,0.4114285714285714
