Fold
0,1,2,3,4,5,6,7,8
Result
0.35333333333333333,0.3383333333333333,0.3283333333333333,0.3383333333333333,0.3233333333333333,0.2633333333333333,0.3433333333333333,0.37666666666666665,0.22333333333333333
