Fold
0,1,2,3,4,5,6,7,8
Result
0.34395848776871757,0.33160237388724034,0.32047477744807124,0.33456973293768544,0.31528189910979226,0.26389918458117123,0.32320237212750186,0.3635014836795252,0.24017790956263899
