Fold
0,1,2,3,4,5,6,7,8
Result
0.27125435540069687,0.2559200140326259,0.30632203981837236,0.28626624517035476,0.3234880450070324,0.278397212543554,0.27475592747559274,0.30518802228412256,0.33530950305143853
